$date
	Mon Dec  2 18:11:08 2019
$end
$version
	Icarus Verilog
$end
$timescale
	1ps
$end
$scope module test $end
$var wire 1 ! z $end
$var reg 1 " clk $end
$var reg 24 # eseq [0:23] $end
$var reg 1 $ reset $end
$var reg 24 % seq [0:23] $end
$var reg 1 & x $end
$var reg 1 ' ze $end
$var integer 32 ( i [31:0] $end
$scope module uut $end
$var wire 1 " clk $end
$var wire 1 $ reset $end
$var wire 1 & x $end
$var reg 2 ) next_state [1:0] $end
$var reg 2 * state [1:0] $end
$var reg 1 ! z $end
$upscope $end
$upscope $end
$enddefinitions $end
#0
$dumpvars
b0 *
b0 )
b0 (
x'
0&
b1001010100011011011100 %
0$
b10000000010010000 #
0"
0!
$end
#1000
0'
#10000
1$
#25000
1"
#50000
0"
#75000
b1 (
1"
#100000
0"
#125000
b10 (
1"
#126000
b1 )
1&
#150000
0"
#175000
b1 *
b11 (
1"
#176000
b10 )
0&
#200000
0"
#225000
b0 )
b10 *
b100 (
1"
#250000
0"
#275000
b0 *
b101 (
1"
#276000
b1 )
1&
#300000
0"
#325000
b1 *
b110 (
1"
#326000
b10 )
0&
#350000
0"
#375000
b0 )
b10 *
b111 (
1"
#376000
1!
1'
1&
#400000
0"
#425000
b1 )
0!
b0 *
b1000 (
1"
#426000
b0 )
0'
0&
#450000
0"
#475000
b1001 (
1"
#476000
b1 )
1&
#500000
0"
#525000
b1 *
b1010 (
1"
#526000
b10 )
0&
#550000
0"
#575000
b0 )
b10 *
b1011 (
1"
#600000
0"
#625000
b0 *
b1100 (
1"
#650000
0"
#675000
b1101 (
1"
#676000
b1 )
1&
#700000
0"
#725000
b1 *
b1110 (
1"
#750000
0"
#775000
b1111 (
1"
#776000
b10 )
0&
#800000
0"
#825000
b0 )
b10 *
b10000 (
1"
#826000
1!
1'
1&
#850000
0"
#875000
b1 )
0!
b0 *
b10001 (
1"
#876000
0'
#900000
0"
#925000
b1 *
b10010 (
1"
#926000
b10 )
0&
#950000
0"
#975000
b0 )
b10 *
b10011 (
1"
#976000
1!
1'
1&
#1000000
0"
#1025000
0!
b1 )
b0 *
b10100 (
1"
#1026000
0'
#1050000
0"
#1075000
b1 *
b10101 (
1"
#1100000
0"
#1125000
b10110 (
1"
#1126000
b10 )
0&
#1150000
0"
#1175000
b0 )
b10 *
b10111 (
1"
#1200000
0"
#1225000
b0 *
b11000 (
1"
