$date
	Tue Oct 10 12:54:25 2023
$end
$version
	Icarus Verilog
$end
$timescale
	1ps
$end
$scope module test $end
$var wire 1 ! alarm $end
$var reg 1 " fire $end
$var reg 1 # on $end
$var reg 1 $ pres $end
$scope module uut $end
$var wire 1 ! alarm $end
$var wire 1 " fire $end
$var wire 1 # on $end
$var wire 1 $ pres $end
$upscope $end
$upscope $end
$enddefinitions $end
#0
$dumpvars
0$
0#
0"
0!
$end
#10000
1!
1"
#20000
1$
#30000
0!
0"
#40000
1!
0$
1#
#50000
1"
#60000
1$
#70000
0!
0"
#90000
